…
    ## Rows: 52,326
    ## Columns: 10
    ## $ Internet_platform <chr> "Facebook", "Facebook", "Facebook", "Facebook", "Fac…
    ## $ SCIENTIFIC_NAME   <chr> "Acacia saligna", "Acacia saligna", "Acacia saligna"…
    ## $ COUNTRY           <chr> "DK", "DK", "DK", "DK", "DK", "DK", "DK", "DK", "DK"…
    ## $ date              <date> 2015-12-01, 2016-01-01, 2016-02-01, 2016-03-01, 201…
    ## $ views             <dbl> 0, 0, 0, 0, 0, 0, 0, 0, 0, 0, 0, 0, 0, 0, 0, 0, 0, 0…
    ## $ YEAR              <int> 2023, 2023, 2023, 2023, 2023, 2023, 2023, 2023, 2023…
    ## $ Group             <chr> "Plantae", "Plantae", "Plantae", "Plantae", "Plantae…
    ## $ Habitat           <chr> "Terrestrial", "Terrestrial", "Terrestrial", "Terres…
    ## $ is_anomaly        <chr> "No", "No", "No", "No", "No", "No", "No", "No", "No"…
    ## $ is_changepoint    <chr> "No", "No", "No", "No", "No", "No", "No", "No", "No"…
    ## # A tibble: 52,326 × 10
    ##    Internet_platform SCIENTIFIC_NAME COUNTRY date       views  YEAR Group  
    ##    <chr>             <chr>           <chr>   <date>     <dbl> <int> <chr>  
    ##  1 Facebook          Acacia saligna  DK      2015-12-01     0  2023 Plantae
    ##  2 Facebook          Acacia saligna  DK      2016-01-01     0  2023 Plantae
    ##  3 Facebook          Acacia saligna  DK      2016-02-01     0  2023 Plantae
    ##  4 Facebook          Acacia saligna  DK      2016-03-01     0  2023 Plantae
    ##  5 Facebook          Acacia saligna  DK      2016-04-01     0  2023 Plantae
    ##  6 Facebook          Acacia saligna  DK      2016-05-01     0  2023 Plantae
    ##  7 Facebook          Acacia saligna  DK      2016-06-01     0  2023 Plantae
    ##  8 Facebook          Acacia saligna  DK      2016-07-01     0  2023 Plantae
    ##  9 Facebook          Acacia saligna  DK      2016-08-01     0  2023 Plantae
    ## 10 Facebook          Acacia saligna  DK      2016-09-01     0  2023 Plantae
    ## # ℹ 52,316 more rows
    ## # ℹ 3 more variables: Habitat <chr>, is_anomaly <chr>, is_changepoint <chr>
…
## 6.5. Generate mean comparison plots between countries, species, platforms

``` r
# Use the 'final_lags_views_per_platform' as the base for plotting.
# Rename it to df_plot to match your template.
df_plot <- final_lags_views_per_platform %>%
  rename(internet_platform = Internet_platform) # Rename for consistency with plotting section
df_plot
```

    ## # A tibble: 453 × 4
    ##    internet_platform SCIENTIFIC_NAME       COUNTRY lag_days
    ##    <chr>             <chr>                 <chr>      <dbl>
    ##  1 Facebook          Acacia saligna        DK          -245
    ##  2 Facebook          Acridotheres tristis  CY             0
    ##  3 Facebook          Acridotheres tristis  GR           243
    ##  4 Facebook          Alopochen aegyptiaca  LT            NA
    ##  5 Facebook          Ameiurus melas        BG           244
    ##  6 Facebook          Asclepias syriaca     EE            NA
    ##  7 Facebook          Asclepias syriaca     ES            NA
    ##  8 Facebook          Asclepias syriaca     FI            NA
    ##  9 Facebook          Asclepias syriaca     LV            NA
    ## 10 Facebook          Celastrus orbiculatus SK            NA
    ## # ℹ 443 more rows
…
    ## $ rho             <dbl> -0.008695652, 0.076584502, -0.027015587, -0.015194013,…
    ## $ p_value         <dbl> 9.261876e-01, 4.138664e-01, 7.734476e-01, 8.713991e-01…
    ## $ Group           <chr> "Aves", "Aves", "Aves", "Aves", "Aves", "Aves", "Aves"…
    ## $ Habitat         <chr> "Terrestrial", "Terrestrial", "Terrestrial", "Terrestr…
    ## $ platform_m      <dbl> 0.12096648, 0.24792064, 0.09920058, 0.05205744, 0.0733…
    ## $ platform_sd     <dbl> 0.1922771, 0.2716230, 0.2050226, 0.1157161, 0.1450108,…
    ## $ country_m       <dbl> 0.17472843, 0.17472843, 0.17472843, 0.17472843, 0.1747…
    ## $ country_sd      <dbl> 0.2379125, 0.2379125, 0.2379125, 0.2379125, 0.2379125,…
    ## $ species_m       <dbl> 0.01562881, 0.01562881, 0.01562881, 0.01562881, 0.0156…
    ## $ species_sd      <dbl> 0.1150955, 0.1150955, 0.1150955, 0.1150955, 0.1150955,…
    ## $ group_m         <dbl> 0.08517968, 0.08517968, 0.08517968, 0.08517968, 0.0851…
    ## $ group_sd        <dbl> 0.1901185, 0.1901185, 0.1901185, 0.1901185, 0.1901185,…
    ## $ habitat_m       <dbl> 0.1349932, 0.1349932, 0.1349932, 0.1349932, 0.1349932,…
    ## $ habitat_sd      <dbl> 0.222124, 0.222124, 0.222124, 0.222124, 0.222124, 0.22…
    ## # A tibble: 3,876 × 17
    ##    SCIENTIFIC_NAME      COUNTRY platform_name          rho p_value Group Habitat
    ##    <chr>                <chr>   <ord>                <dbl>   <dbl> <chr> <chr>  
    ##  1 Acridotheres tristis DE      Wikipedia (geo)   -0.00870 0.926   Aves  Terres…
    ##  2 Acridotheres tristis DE      Wikipedia (lan)    0.0766  0.414   Aves  Terres…
    ##  3 Acridotheres tristis DE      Google health     -0.0270  0.773   Aves  Terres…
    ##  4 Acridotheres tristis DE      Youtube           -0.0152  0.871   Aves  Terres…
    ##  5 Acridotheres tristis DE      Facebook          -0.0487  0.603   Aves  Terres…
    ##  6 Acridotheres tristis NL      Wikipedia (geo)    0.270   0.00340 Aves  Terres…
    ##  7 Acridotheres tristis NL      Wikipedia (lan)    0.216   0.0196  Aves  Terres…
    ##  8 Acridotheres tristis NL      Google health      0.0320  0.733   Aves  Terres…
    ##  9 Acridotheres tristis NL      iNaturalist (cas… -0.0578  0.538   Aves  Terres…
    ## 10 Acridotheres tristis NL      Youtube            0.196   0.0350  Aves  Terres…
    ## # ℹ 3,866 more rows
    ## # ℹ 10 more variables: platform_m <dbl>, platform_sd <dbl>, country_m <dbl>,
    ## #   country_sd <dbl>, species_m <dbl>, species_sd <dbl>, group_m <dbl>,
    ## #   group_sd <dbl>, habitat_m <dbl>, habitat_sd <dbl>
…
# View the structure of the final data frame
print(glimpse(platform_comp))
```

    ## Rows: 24,352
    ## Columns: 8
    ## $ COUNTRY           <chr> "AL", "AL", "AL", "AL", "AL", "AL", "AL", "AL", "AL"…
    ## $ SCIENTIFIC_NAME   <chr> "Acacia saligna", "Acacia saligna", "Acacia saligna"…
    ## $ Internet_platform <chr> "Facebook", "Flickr", "GBIF", "Google health", "Wiki…
    ## $ popularity        <int> 1, 0, 11, 0, 0, 0, 0, 3, 2, 0, 16, 0, 0, 0, 0, 15, 1…
    ## $ Group             <chr> "Plantae", "Plantae", "Plantae", "Plantae", "Plantae…
    ## $ Habitat           <chr> "Terrestrial", "Terrestrial", "Terrestrial", "Terres…
    ## $ platform_m        <dbl> 4.8229304, 0.8876478, 78.4438239, 17.7713535, 10.789…
    ## $ platform_sd       <dbl> 11.68087, 13.15313, 340.64340, 72.31691, 117.20423, …
    ## # A tibble: 24,352 × 8
    ##    COUNTRY SCIENTIFIC_NAME Internet_platform popularity Group Habitat platform_m
    ##    <chr>   <chr>           <chr>                  <int> <chr> <chr>        <dbl>
    ##  1 AL      Acacia saligna  Facebook                   1 Plan… Terres…      4.82 
    ##  2 AL      Acacia saligna  Flickr                     0 Plan… Terres…      0.888
    ##  3 AL      Acacia saligna  GBIF                      11 Plan… Terres…     78.4  
    ##  4 AL      Acacia saligna  Google health              0 Plan… Terres…     17.8  
    ##  5 AL      Acacia saligna  Wikipedia (geo)            0 Plan… Terres…     10.8  
    ##  6 AL      Acacia saligna  Wikipedia (lan)            0 Plan… Terres…   1215.   
    ##  7 AL      Acacia saligna  Youtube                    0 Plan… Terres…      3.02 
    ##  8 AL      Acacia saligna  iNaturalist (cas…          3 Plan… Terres…      6.16 
    ##  9 AL      Ailanthus alti… Facebook                   2 Plan… Terres…      4.82 
    ## 10 AL      Ailanthus alti… Flickr                     0 Plan… Terres…      0.888
    ## # ℹ 24,342 more rows
    ## # ℹ 1 more variable: platform_sd <dbl>
…
    ## $ COUNTRY           <chr> "AL", "AL", "AL", "AL", "AL", "AL", "AL", "AL", "AL"…
    ## $ SCIENTIFIC_NAME   <chr> "Acacia saligna", "Acacia saligna", "Acacia saligna"…
    ## $ Internet_platform <chr> "Facebook", "Flickr", "Google health", "Wikipedia (g…
    ## $ popularity        <int> 1, 0, 0, 0, 0, 0, 3, 2, 0, 0, 0, 0, 0, 15, 1, 0, 0, …
    ## $ Group             <chr> "Plantae", "Plantae", "Plantae", "Plantae", "Plantae…
    ## $ Habitat           <chr> "Terrestrial", "Terrestrial", "Terrestrial", "Terres…
    ## $ species_m         <dbl> 138.9592, 138.9592, 138.9592, 138.9592, 138.9592, 13…
    ## $ species_sd        <dbl> 639.1267, 639.1267, 639.1267, 639.1267, 639.1267, 63…
    ## $ group_m           <dbl> 130.8200, 130.8200, 130.8200, 130.8200, 130.8200, 13…
    ## $ group_sd          <dbl> 76.51216, 76.51216, 76.51216, 76.51216, 76.51216, 76…
    ## $ habitat_m         <dbl> 168.2495, 168.2495, 168.2495, 168.2495, 168.2495, 16…
    ## $ habitat_sd        <dbl> 104.8402, 104.8402, 104.8402, 104.8402, 104.8402, 10…
    ## $ country_m         <dbl> 5.47619, 5.47619, 5.47619, 5.47619, 5.47619, 5.47619…
    ## $ country_sd        <dbl> 53.29491, 53.29491, 53.29491, 53.29491, 53.29491, 53…
    ## # A tibble: 21,308 × 14
    ##    COUNTRY SCIENTIFIC_NAME  Internet_platform popularity Group Habitat species_m
    ##    <chr>   <chr>            <chr>                  <int> <chr> <chr>       <dbl>
    ##  1 AL      Acacia saligna   Facebook                   1 Plan… Terres…      139.
    ##  2 AL      Acacia saligna   Flickr                     0 Plan… Terres…      139.
    ##  3 AL      Acacia saligna   Google health              0 Plan… Terres…      139.
    ##  4 AL      Acacia saligna   Wikipedia (geo)            0 Plan… Terres…      139.
    ##  5 AL      Acacia saligna   Wikipedia (lan)            0 Plan… Terres…      139.
    ##  6 AL      Acacia saligna   Youtube                    0 Plan… Terres…      139.
    ##  7 AL      Acacia saligna   iNaturalist (cas…          3 Plan… Terres…      139.
    ##  8 AL      Ailanthus altis… Facebook                   2 Plan… Terres…      312.
    ##  9 AL      Ailanthus altis… Flickr                     0 Plan… Terres…      312.
    ## 10 AL      Ailanthus altis… Google health              0 Plan… Terres…      312.
    ## # ℹ 21,298 more rows
    ## # ℹ 7 more variables: species_sd <dbl>, group_m <dbl>, group_sd <dbl>,
    ## #   habitat_m <dbl>, habitat_sd <dbl>, country_m <dbl>, country_sd <dbl>
…
