…
#display first rows
(glimpse(long_inat_df))
```

    ## Rows: 3,397,875
    ## Columns: 5
    ## $ SCIENTIFIC_NAME   <chr> "Acacia saligna", "Acacia saligna", "Acacia saligna"…
    ## $ COUNTRY           <chr> "AL", "AL", "AL", "AL", "AL", "AL", "AL", "AL", "AL"…
    ## $ date              <date> 2016-01-01, 2016-01-02, 2016-01-03, 2016-01-04, 201…
    ## $ views             <dbl> 0, 0, 0, 0, 0, 0, 0, 0, 0, 0, 0, 0, 0, 0, 0, 0, 0, 0…
    ## $ Internet_platform <chr> "iNaturalist (casual)", "iNaturalist (casual)", "iNa…

    ## # A tibble: 3,397,875 × 5
    ##    SCIENTIFIC_NAME COUNTRY date       views Internet_platform   
    ##    <chr>           <chr>   <date>     <dbl> <chr>               
    ##  1 Acacia saligna  AL      2016-01-01     0 iNaturalist (casual)
    ##  2 Acacia saligna  AL      2016-01-02     0 iNaturalist (casual)
    ##  3 Acacia saligna  AL      2016-01-03     0 iNaturalist (casual)
    ##  4 Acacia saligna  AL      2016-01-04     0 iNaturalist (casual)
    ##  5 Acacia saligna  AL      2016-01-05     0 iNaturalist (casual)
    ##  6 Acacia saligna  AL      2016-01-06     0 iNaturalist (casual)
    ##  7 Acacia saligna  AL      2016-01-07     0 iNaturalist (casual)
    ##  8 Acacia saligna  AL      2016-01-08     0 iNaturalist (casual)
    ##  9 Acacia saligna  AL      2016-01-09     0 iNaturalist (casual)
    ## 10 Acacia saligna  AL      2016-01-10     0 iNaturalist (casual)
    ## # ℹ 3,397,865 more rows
…
# Display the first few rows of the final processed YouTube dataframe
print(glimpse((processed_youtube_df)))
```

    ## Rows: 8,779,680
    ## Columns: 5
    ## $ SCIENTIFIC_NAME   <chr> "Acacia saligna", "Acacia saligna", "Acacia saligna"…
    ## $ COUNTRY           <chr> "AT", "AT", "AT", "AT", "AT", "AT", "AT", "AT", "AT"…
    ## $ date              <date> 2016-01-01, 2016-01-02, 2016-01-03, 2016-01-04, 201…
    ## $ views             <int> 0, 0, 0, 0, 0, 0, 0, 0, 0, 0, 0, 0, 0, 0, 0, 0, 0, 0…
    ## $ Internet_platform <chr> "Youtube", "Youtube", "Youtube", "Youtube", "Youtube…
    ## # A tibble: 8,779,680 × 5
    ##    SCIENTIFIC_NAME COUNTRY date       views Internet_platform
    ##    <chr>           <chr>   <date>     <int> <chr>            
    ##  1 Acacia saligna  AT      2016-01-01     0 Youtube          
    ##  2 Acacia saligna  AT      2016-01-02     0 Youtube          
    ##  3 Acacia saligna  AT      2016-01-03     0 Youtube          
    ##  4 Acacia saligna  AT      2016-01-04     0 Youtube          
    ##  5 Acacia saligna  AT      2016-01-05     0 Youtube          
    ##  6 Acacia saligna  AT      2016-01-06     0 Youtube          
    ##  7 Acacia saligna  AT      2016-01-07     0 Youtube          
    ##  8 Acacia saligna  AT      2016-01-08     0 Youtube          
    ##  9 Acacia saligna  AT      2016-01-09     0 Youtube          
    ## 10 Acacia saligna  AT      2016-01-10     0 Youtube          
    ## # ℹ 8,779,670 more rows
…
