…
``` r
print("Original Data with Anomaly Flags (pv_long_with_anomaly):")
```

    ## [1] "Original Data with Anomaly Flags (pv_long_with_anomaly):"

``` r
print(pv_long_with_anomaly)
```

    ## # A tibble: 40,790 × 9
    ##    Internet_platform SCIENTIFIC_NAME   COUNTRY date       views  YEAR Group  
    ##    <chr>             <chr>             <chr>   <date>     <dbl> <dbl> <chr>  
    ##  1 Flickr            Gunnera tinctoria DK      2009-03-01     1  2020 Plantae
    ##  2 Flickr            Gunnera tinctoria DK      2016-01-01     0  2020 Plantae
    ##  3 Flickr            Gunnera tinctoria DK      2016-02-01     0  2020 Plantae
    ##  4 Flickr            Gunnera tinctoria DK      2016-03-01     0  2020 Plantae
    ##  5 Flickr            Gunnera tinctoria DK      2016-04-01     0  2020 Plantae
    ##  6 Flickr            Gunnera tinctoria DK      2016-05-01     0  2020 Plantae
    ##  7 Flickr            Gunnera tinctoria DK      2016-06-01     0  2020 Plantae
    ##  8 Flickr            Gunnera tinctoria DK      2016-07-01     0  2020 Plantae
    ##  9 Flickr            Gunnera tinctoria DK      2016-08-01     0  2020 Plantae
    ## 10 Flickr            Gunnera tinctoria DK      2016-09-01     0  2020 Plantae
    ## # ℹ 40,780 more rows
    ## # ℹ 2 more variables: Habitat <chr>, anomaly <chr>
…
final_lags_views_per_platform <- all_combinations %>%
  left_join(lag_df, by = c("Internet_platform", "SCIENTIFIC_NAME", "COUNTRY"))

# View result
print("Final Lags (final_lags_views_per_platform):")
```

    ## [1] "Final Lags (final_lags_views_per_platform):"

``` r
print(final_lags_views_per_platform)
```

    ## # A tibble: 371 × 4
    ##    Internet_platform SCIENTIFIC_NAME          COUNTRY lag_days
    ##    <chr>             <chr>                    <chr>      <dbl>
    ##  1 Flickr            Gunnera tinctoria        DK            NA
    ##  2 Flickr            Nasua nasua              BE           152
    ##  3 Flickr            Nasua nasua              DE           244
    ##  4 Flickr            Nasua nasua              DK            NA
    ##  5 Flickr            Pistia stratiotes        PL            NA
    ##  6 Flickr            Sciurus carolinensis     DE            NA
    ##  7 Flickr            Sciurus carolinensis     FR            NA
    ##  8 Flickr            Threskiornis aethiopicus CZ            NA
    ##  9 Flickr            Threskiornis aethiopicus DE           212
    ## 10 GBIF              Acacia saligna           DK           120
    ## # ℹ 361 more rows

## 6.5. Generate mean comparison plots between countries, species, platforms

``` r
# Use the 'final_lags_views_per_platform' as the base for plotting.
# Rename it to df_plot to match your template.
df_plot <- final_lags_views_per_platform %>%
  rename(internet_platform = Internet_platform) # Rename for consistency with plotting section
df_plot
```

    ## # A tibble: 371 × 4
    ##    internet_platform SCIENTIFIC_NAME          COUNTRY lag_days
    ##    <chr>             <chr>                    <chr>      <dbl>
    ##  1 Flickr            Gunnera tinctoria        DK            NA
    ##  2 Flickr            Nasua nasua              BE           152
    ##  3 Flickr            Nasua nasua              DE           244
    ##  4 Flickr            Nasua nasua              DK            NA
    ##  5 Flickr            Pistia stratiotes        PL            NA
    ##  6 Flickr            Sciurus carolinensis     DE            NA
    ##  7 Flickr            Sciurus carolinensis     FR            NA
    ##  8 Flickr            Threskiornis aethiopicus CZ            NA
    ##  9 Flickr            Threskiornis aethiopicus DE           212
    ## 10 GBIF              Acacia saligna           DK           120
    ## # ℹ 361 more rows
…
# Ensure the join was successful (optional check, but good for debugging)
if (nrow(df_plot_joined) == 0) {
  stop("df_plot_joined is empty after left_join. Check join keys and data.")
}
print("df_plot_joined after initial join:")
```

    ## [1] "df_plot_joined after initial join:"

``` r
print(df_plot_joined)
```

    ## # A tibble: 371 × 9
    ##    internet_platform SCIENTIFIC_NAME    COUNTRY lag_days  YEAR `WIKI NAME` Group
    ##    <chr>             <chr>              <chr>      <dbl> <dbl> <chr>       <chr>
    ##  1 Flickr            Gunnera tinctoria  DK            NA  2020 Gunnera ti… Plan…
    ##  2 Flickr            Nasua nasua        BE           152  2016 Nasua nasua Mamm…
    ##  3 Flickr            Nasua nasua        DE           244  2016 Nasua nasua Mamm…
    ##  4 Flickr            Nasua nasua        DK            NA  2019 Nasua nasua Mamm…
    ##  5 Flickr            Pistia stratiotes  PL            NA  2021 Pistia str… Plan…
    ##  6 Flickr            Sciurus carolinen… DE            NA  2016 Sciurus ca… Mamm…
    ##  7 Flickr            Sciurus carolinen… FR            NA  2019 Sciurus ca… Mamm…
    ##  8 Flickr            Threskiornis aeth… CZ            NA  2018 Threskiorn… Aves 
    ##  9 Flickr            Threskiornis aeth… DE           212  2018 Threskiorn… Aves 
    ## 10 GBIF              Acacia saligna     DK           120  2023 Acacia sal… Plan…
    ## # ℹ 361 more rows
    ## # ℹ 2 more variables: Habitat <chr>, EASIN.ID <chr>
``` r
df_plot_filtered_by_intro_year <- df_plot_joined %>%
  filter(!is.na(YEAR)) # Keep only rows where the YEAR from intro_year is present

# Check how many rows remain after this filter
cat("Number of rows after filtering for valid intro_year matches:", nrow(df_plot_filtered_by_intro_year), "\n")
```

    ## Number of rows after filtering for valid intro_year matches: 371

``` r
df_plot_joined
```

    ## # A tibble: 371 × 9
    ##    internet_platform SCIENTIFIC_NAME    COUNTRY lag_days  YEAR `WIKI NAME` Group
    ##    <chr>             <chr>              <chr>      <dbl> <dbl> <chr>       <chr>
    ##  1 Flickr            Gunnera tinctoria  DK            NA  2020 Gunnera ti… Plan…
    ##  2 Flickr            Nasua nasua        BE           152  2016 Nasua nasua Mamm…
    ##  3 Flickr            Nasua nasua        DE           244  2016 Nasua nasua Mamm…
    ##  4 Flickr            Nasua nasua        DK            NA  2019 Nasua nasua Mamm…
    ##  5 Flickr            Pistia stratiotes  PL            NA  2021 Pistia str… Plan…
    ##  6 Flickr            Sciurus carolinen… DE            NA  2016 Sciurus ca… Mamm…
    ##  7 Flickr            Sciurus carolinen… FR            NA  2019 Sciurus ca… Mamm…
    ##  8 Flickr            Threskiornis aeth… CZ            NA  2018 Threskiorn… Aves 
    ##  9 Flickr            Threskiornis aeth… DE           212  2018 Threskiorn… Aves 
    ## 10 GBIF              Acacia saligna     DK           120  2023 Acacia sal… Plan…
    ## # ℹ 361 more rows
    ## # ℹ 2 more variables: Habitat <chr>, EASIN.ID <chr>
…
df_plot_final$internet_platform <- factor(df_plot_final$internet_platform, levels = c ("GBIF", "Youtube", "Wikipedia (lan)", "Wikipedia (geo)", "iNaturalist (casual)", "Google health", "Flickr"), ordered = T)

print("df_plot_final after all calculations:")
```

    ## [1] "df_plot_final after all calculations:"

``` r
print(df_plot_final)
```

    ## # A tibble: 371 × 19
    ##    internet_platform SCIENTIFIC_NAME    COUNTRY lag_days  YEAR `WIKI NAME` Group
    ##    <ord>             <chr>              <chr>      <dbl> <dbl> <chr>       <chr>
    ##  1 Flickr            Gunnera tinctoria  DK            NA  2020 Gunnera ti… Plan…
    ##  2 Flickr            Nasua nasua        BE           152  2016 Nasua nasua Mamm…
    ##  3 Flickr            Nasua nasua        DE           244  2016 Nasua nasua Mamm…
    ##  4 Flickr            Nasua nasua        DK            NA  2019 Nasua nasua Mamm…
    ##  5 Flickr            Pistia stratiotes  PL            NA  2021 Pistia str… Plan…
    ##  6 Flickr            Sciurus carolinen… DE            NA  2016 Sciurus ca… Mamm…
    ##  7 Flickr            Sciurus carolinen… FR            NA  2019 Sciurus ca… Mamm…
    ##  8 Flickr            Threskiornis aeth… CZ            NA  2018 Threskiorn… Aves 
    ##  9 Flickr            Threskiornis aeth… DE           212  2018 Threskiorn… Aves 
    ## 10 GBIF              Acacia saligna     DK           120  2023 Acacia sal… Plan…
    ## # ℹ 361 more rows
    ## # ℹ 12 more variables: Habitat <chr>, EASIN.ID <chr>, platform_m <dbl>,
    ## #   platform_sd <dbl>, country_m <dbl>, country_sd <dbl>, species_m <dbl>,
    ## #   species_sd <dbl>, group_m <dbl>, group_sd <dbl>, habitat_m <dbl>,
    ## #   habitat_sd <dbl>
…
